{
  "parent": "minecraft:recipes/root",
  "criteria": {
    "has_gelatin": {
      "conditions": {
        "items": [
          {
            "items": [
              "beetlebox:gelatin"
            ]
          }
        ]
      },
      "trigger": "minecraft:inventory_changed"
    },
    "has_the_recipe": {
      "conditions": {
        "recipe": "beetlebox:beetle_jelly_211"
      },
      "trigger": "minecraft:recipe_unlocked"
    }
  },
  "requirements": [
    [
      "has_gelatin",
      "has_the_recipe"
    ]
  ],
  "rewards": {
    "recipes": [
      "beetlebox:beetle_jelly_211"
    ]
  },
  "sends_telemetry_event": true
}