{
  "parent": "minecraft:recipes/root",
  "criteria": {
    "has_a_dichotoma_elytron": {
      "conditions": {
        "items": [
          {
            "items": [
              "beetlebox:a_dichotoma_elytron"
            ]
          }
        ]
      },
      "trigger": "minecraft:inventory_changed"
    },
    "has_the_recipe": {
      "conditions": {
        "recipe": "minecraft:a_dichotoma_boots"
      },
      "trigger": "minecraft:recipe_unlocked"
    }
  },
  "requirements": [
    [
      "has_a_dichotoma_elytron",
      "has_the_recipe"
    ]
  ],
  "rewards": {
    "recipes": [
      "minecraft:a_dichotoma_boots"
    ]
  },
  "sends_telemetry_event": false
}