{
  "type": "minecraft:crafting_shaped",
  "category": "equipment",
  "key": {
    "b": {
      "item": "minecraft:diamond_boots"
    },
    "e": {
      "item": "beetlebox:c_atlas_elytron"
    },
    "g": {
      "item": "beetlebox:gelatin_glue"
    },
    "o": {
      "item": "minecraft:obsidian"
    }
  },
  "pattern": [
    "eoe",
    "gbg",
    "eoe"
  ],
  "result": {
    "item": "beetlebox:c_atlas_boots"
  },
  "show_notification": true
}