{
  "type": "minecraft:crafting_shaped",
  "category": "equipment",
  "key": {
    "e": {
      "item": "beetlebox:c_minutus_elytron"
    },
    "g": {
      "item": "beetlebox:gelatin_glue"
    },
    "l": {
      "item": "minecraft:diamond_leggings"
    },
    "o": {
      "item": "minecraft:obsidian"
    }
  },
  "pattern": [
    "eoe",
    "glg",
    "eoe"
  ],
  "result": {
    "item": "beetlebox:c_minutus_leggings"
  },
  "show_notification": true
}