{
  "type": "minecraft:entity",
  "pools": [
    {
      "bonus_rolls": 0.0,
      "entries": [
        {
          "type": "minecraft:item",
          "name": "beetlebox:d_tityus_elytron"
        }
      ],
      "functions": [
        {
          "count": {
            "type": "minecraft:uniform",
            "max": 3.0,
            "min": 0.0
          },
          "function": "minecraft:looting_enchant"
        }
      ],
      "rolls": {
        "type": "minecraft:uniform",
        "max": 2.0,
        "min": 1.0
      }
    }
  ]
}