{
  "type": "beetlebox:upgrade_recipe",
  "category": "equipment",
  "key": {
    "x": {
      "item": "minecraft:brick_stairs"
    },
    "h": {
      "item": "beetlebox:beetle_husk"
    },
    "o": {
      "item": "minecraft:obsidian"
    },
    "w": {
      "item": "minecraft:nether_wart"
    }
  },
  "pattern": [
    "owo",
    "hxh",
    "owo"
  ],
  "result": {
    "item": "beetlebox:upgrade_dormant"
  },
  "show_notification": true
}